score_compteur/score_compteur_gtkwave.vcd
$date
  Thu May 22 12:42:01 2025
$end
$version
  GHDL v0
$end
$timescale
  1 fs
$end
$scope module standard $end
$upscope $end
$scope module std_logic_1164 $end
$upscope $end
$scope module numeric_std $end
$upscope $end
$scope module score_compteur_tb $end
$var reg 1 ! clk_sim $end
$var reg 1 " reset_sim $end
$var reg 1 # valid_hit_sim $end
$var reg 4 $ score_sim[3:0] $end
$var reg 1 % game_over_sim $end
$scope module uut $end
$var reg 1 & clk $end
$var reg 1 ' reset $end
$var reg 1 ( valid_hit $end
$var reg 4 ) score[3:0] $end
$var reg 1 * game_over $end
$var reg 4 + score_reg[3:0] $end
$var reg 1 , game_over_resultat $end
$upscope $end
$upscope $end
$enddefinitions $end
#0
0!
1"
0#
b0000 $
0%
0&
1'
0(
b0000 )
0*
b0000 +
0,
#5000000
1!
1&
#10000000
0!
0&
#15000000
1!
1&
#20000000
0!
0"
1#
0&
0'
1(
#25000000
1!
b0001 $
1&
b0001 )
b0001 +
#30000000
0!
0#
0&
0(
#35000000
1!
1&
#40000000
0!
1#
0&
1(
#45000000
1!
b0010 $
1&
b0010 )
b0010 +
#50000000
0!
0#
0&
0(
#55000000
1!
1&
#60000000
0!
1#
0&
1(
#65000000
1!
b0011 $
1&
b0011 )
b0011 +
#70000000
0!
0#
0&
0(
#75000000
1!
1&
#80000000
0!
1#
0&
1(
#85000000
1!
b0100 $
1&
b0100 )
b0100 +
#90000000
0!
0#
0&
0(
#95000000
1!
1&
#100000000
0!
1#
0&
1(
#105000000
1!
b0101 $
1&
b0101 )
b0101 +
#110000000
0!
0#
0&
0(
#115000000
1!
1&
#120000000
0!
0&
#125000000
1!
1&
#130000000
0!
0&
#135000000
1!
1&
#140000000
0!
0&
#145000000
1!
1&
#150000000
0!
0&
#155000000
1!
1&
#160000000
0!
0&
#165000000
1!
1&
#170000000
0!
0&
#175000000
1!
1&
#180000000
0!
1#
0&
1(
#185000000
1!
b0110 $
1&
b0110 )
b0110 +
#190000000
0!
0#
0&
0(
#195000000
1!
1&
#200000000
0!
1#
0&
1(
#205000000
1!
b0111 $
1&
b0111 )
b0111 +
#210000000
0!
0#
0&
0(
#215000000
1!
1&
#220000000
0!
1#
0&
1(
#225000000
1!
b1000 $
1&
b1000 )
b1000 +
#230000000
0!
0#
0&
0(
#235000000
1!
1&
#240000000
0!
1#
0&
1(
#245000000
1!
b1001 $
1&
b1001 )
b1001 +
#250000000
0!
0#
0&
0(
#255000000
1!
1&
#260000000
0!
1#
0&
1(
#265000000
1!
b1010 $
1&
b1010 )
b1010 +
#270000000
0!
0#
0&
0(
#275000000
1!
1&
#280000000
0!
1#
0&
1(
#285000000
1!
b1011 $
1&
b1011 )
b1011 +
#290000000
0!
0#
0&
0(
#295000000
1!
1&
#300000000
0!
1#
0&
1(
#305000000
1!
b1100 $
1&
b1100 )
b1100 +
#310000000
0!
0#
0&
0(
#315000000
1!
1&
#320000000
0!
1#
0&
1(
#325000000
1!
b1101 $
1&
b1101 )
b1101 +
#330000000
0!
0#
0&
0(
#335000000
1!
1&
#340000000
0!
1#
0&
1(
#345000000
1!
b1110 $
1&
b1110 )
b1110 +
#350000000
0!
0#
0&
0(
#355000000
1!
1&
#360000000
0!
1#
0&
1(
#365000000
1!
b1111 $
1%
1&
b1111 )
1*
b1111 +
1,
#370000000
0!
0#
0&
0(
#375000000
1!
1&
#380000000
0!
1#
0&
1(
#385000000
1!
1&
#390000000
0!
0#
0&
0(
