top_level/top_level_gtkwave.vcd
$date
  Wed May 28 14:51:20 2025
$end
$version
  GHDL v0
$end
$timescale
  1 fs
$end
$scope module standard $end
$upscope $end
$scope module std_logic_1164 $end
$upscope $end
$scope module std_logic_arith $end
$upscope $end
$scope module std_logic_signed $end
$upscope $end
$scope module numeric_std $end
$upscope $end
$scope module top_level_tb $end
$var reg 1 ! clk $end
$var reg 4 " sw[3:0] $end
$var reg 4 # btn[3:0] $end
$var reg 4 $ led[3:0] $end
$var reg 1 % led0_r $end
$var reg 1 & led0_g $end
$var reg 1 ' led0_b $end
$var reg 1 ( led1_r $end
$var reg 1 ) led1_g $end
$var reg 1 * led1_b $end
$var reg 1 + led2_r $end
$var reg 1 , led2_g $end
$var reg 1 - led2_b $end
$var reg 1 . led3_r $end
$var reg 1 / led3_g $end
$var reg 1 0 led3_b $end
$scope module top_level_inst $end
$var reg 1 1 clk100mhz $end
$var reg 4 2 sw[3:0] $end
$var reg 4 3 btn[3:0] $end
$var reg 4 4 led[3:0] $end
$var reg 1 5 led0_r $end
$var reg 1 6 led0_g $end
$var reg 1 7 led0_b $end
$var reg 1 8 led1_r $end
$var reg 1 9 led1_g $end
$var reg 1 : led1_b $end
$var reg 1 ; led2_r $end
$var reg 1 < led2_g $end
$var reg 1 = led2_b $end
$var reg 1 > led3_r $end
$var reg 1 ? led3_g $end
$var reg 1 @ led3_b $end
$var reg 1 A reset_sim $end
$var reg 7 B addr_sim[6:0] $end
$var reg 10 C instr_sim[9:0] $end
$var reg 8 D res_out_sim[7:0] $end
$var reg 8 E mem_cache_1_in_sim[7:0] $end
$var reg 8 F mem_cache_2_in_sim[7:0] $end
$var reg 8 G mem_cache_1_out_sim[7:0] $end
$var reg 8 H mem_cache_2_out_sim[7:0] $end
$var reg 1 I mem_cache_1_enable_sim $end
$var reg 1 J mem_cache_2_enable_sim $end
$var reg 4 K buffer_a_sim[3:0] $end
$var reg 4 L buffer_b_sim[3:0] $end
$var reg 1 M buffer_a_enable_sim $end
$var reg 1 N buffer_b_enable_sim $end
$var reg 4 O buffera_out[3:0] $end
$var reg 4 P bufferb_out[3:0] $end
$var reg 1 Q sr_in_l_sim $end
$var reg 1 R sr_in_r_sim $end
$var reg 4 S sel_fct_sim[3:0] $end
$var reg 4 T sel_route_sim[3:0] $end
$var reg 2 U sel_out_sim[1:0] $end
$var reg 4 V sel_fct_reg[3:0] $end
$var reg 4 W sel_route_reg[3:0] $end
$var reg 2 X sel_out_reg[1:0] $end
$var reg 1 Y sr_in_l_reg $end
$var reg 1 Z sr_in_r_reg $end
$var reg 8 [ s_sim[7:0] $end
$var reg 1 \ sr_out_l_sim $end
$var reg 1 ] sr_out_r_sim $end
$var reg 1 ^ sr_out_l_vec[0:0] $end
$var reg 1 _ sr_out_r_vec[0:0] $end
$var reg 1 ` sr_in_l_vec[0:0] $end
$var reg 1 a sr_in_r_vec[0:0] $end
$var reg 4 b a_in_sim[3:0] $end
$var reg 4 c b_in_sim[3:0] $end
$var reg 1 d ready_sim $end
$comment fsm_main is not handled $end
$var reg 7 e mycounter[6:0] $end
$var reg 8 f res_out_reg[7:0] $end
$var reg 1 g ready_reg $end
$var reg 4 h btn_prev[3:0] $end
$var reg 1 i ready_prev $end
$var reg 1 j calcul_en_cours $end
$scope module buffer_a_inst $end
$var reg 4 k e1[3:0] $end
$var reg 1 l reset $end
$var reg 1 m clock $end
$var reg 1 n enable $end
$var reg 4 o s1[3:0] $end
$upscope $end
$scope module buffer_b_inst $end
$var reg 4 p e1[3:0] $end
$var reg 1 q reset $end
$var reg 1 r clock $end
$var reg 1 s enable $end
$var reg 4 t s1[3:0] $end
$upscope $end
$scope module mem_cache_1_inst $end
$var reg 8 u e1[7:0] $end
$var reg 1 v reset $end
$var reg 1 w clock $end
$var reg 1 x enable $end
$var reg 8 y s1[7:0] $end
$upscope $end
$scope module mem_cache_2_inst $end
$var reg 8 z e1[7:0] $end
$var reg 1 { reset $end
$var reg 1 | clock $end
$var reg 1 } enable $end
$var reg 8 !" s1[7:0] $end
$upscope $end
$scope module buffer_cmd_fct $end
$var reg 4 "" e1[3:0] $end
$var reg 1 #" reset $end
$var reg 1 $" clock $end
$var reg 1 %" enable $end
$var reg 4 &" s1[3:0] $end
$upscope $end
$scope module buffer_cmd_route $end
$var reg 4 '" e1[3:0] $end
$var reg 1 (" reset $end
$var reg 1 )" clock $end
$var reg 1 *" enable $end
$var reg 4 +" s1[3:0] $end
$upscope $end
$scope module buffer_cmd_out $end
$var reg 2 ," e1[1:0] $end
$var reg 1 -" reset $end
$var reg 1 ." clock $end
$var reg 1 /" enable $end
$var reg 2 0" s1[1:0] $end
$upscope $end
$scope module buffer_sr_in_l $end
$var reg 1 1" e1[0:0] $end
$var reg 1 2" reset $end
$var reg 1 3" clock $end
$var reg 1 4" enable $end
$var reg 1 5" s1[0:0] $end
$upscope $end
$scope module buffer_sr_in_r $end
$var reg 1 6" e1[0:0] $end
$var reg 1 7" reset $end
$var reg 1 8" clock $end
$var reg 1 9" enable $end
$var reg 1 :" s1[0:0] $end
$upscope $end
$scope module alu_inst $end
$var reg 4 ;" a[3:0] $end
$var reg 4 <" b[3:0] $end
$var reg 1 =" sr_in_l $end
$var reg 1 >" sr_in_r $end
$var reg 4 ?" sel_fct[3:0] $end
$var reg 1 @" sr_out_l $end
$var reg 1 A" sr_out_r $end
$var reg 8 B" s[7:0] $end
$upscope $end
$scope module mem_inst $end
$var reg 1 C" clk $end
$var reg 1 D" reset $end
$var reg 7 E" instruction[6:0] $end
$var reg 10 F" donnee[9:0] $end
$comment memoire is not handled $end
$upscope $end
$scope module interco_inst $end
$var reg 4 G" sel_route[3:0] $end
$var reg 4 H" a_in[3:0] $end
$var reg 4 I" b_in[3:0] $end
$var reg 8 J" s[7:0] $end
$var reg 8 K" mem_cache_1_in[7:0] $end
$var reg 1 L" mem_cache_1_out_enable $end
$var reg 8 M" mem_cache_1_out[7:0] $end
$var reg 8 N" mem_cache_2_in[7:0] $end
$var reg 1 O" mem_cache_2_out_enable $end
$var reg 8 P" mem_cache_2_out[7:0] $end
$var reg 4 Q" buffer_a[3:0] $end
$var reg 1 R" buffer_a_enable $end
$var reg 4 S" buffer_b[3:0] $end
$var reg 1 T" buffer_b_enable $end
$var reg 2 U" sel_out[1:0] $end
$var reg 8 V" res_out[7:0] $end
$var reg 1 W" ready $end
$upscope $end
$upscope $end
$upscope $end
$enddefinitions $end
#0
0!
b0011 "
b0000 #
b0000 $
0%
U&
0'
0(
U)
0*
0+
U,
0-
0.
U/
00
01
b0011 2
b0000 3
b0000 4
05
U6
07
08
U9
0:
0;
U<
0=
0>
U?
0@
0A
b0000000 B
bUUUUUUUUUU C
b00000000 D
b00000000 E
b00000000 F
bUUUUUUUU G
bUUUUUUUU H
0I
0J
b0000 K
b0000 L
0M
0N
bUUUU O
bUUUU P
0Q
0R
bUUUU S
bUUUU T
bUU U
bUUUU V
bUUUU W
bUU X
UY
UZ
b00000000 [
0\
0]
b0 ^
b0 _
bU `
bU a
b0000 b
b0000 c
0d
b0000000 e
b00000000 f
0g
b0000 h
0i
0j
b0000 k
0l
0m
0n
bUUUU o
b0000 p
0q
0r
0s
bUUUU t
b00000000 u
0v
0w
0x
bUUUUUUUU y
b00000000 z
0{
0|
0}
bUUUUUUUU !"
bUUUU ""
0#"
0$"
1%"
bUUUU &"
bUUUU '"
0("
0)"
1*"
bUUUU +"
bUU ,"
0-"
0."
1/"
bUU 0"
b0 1"
02"
03"
14"
bU 5"
b0 6"
07"
08"
19"
bU :"
bUUUU ;"
bUUUU <"
U="
U>"
bUUUU ?"
0@"
0A"
b00000000 B"
0C"
0D"
b0000000 E"
bUUUUUUUUUU F"
bUUUU G"
b0011 H"
b0011 I"
b00000000 J"
bUUUUUUUU K"
0L"
b00000000 M"
bUUUUUUUU N"
0O"
b00000000 P"
b0000 Q"
0R"
b0000 S"
0T"
bUU U"
b00000000 V"
0W"
#5000000
1!
0&
11
06
b0000000000 C
b0000 S
b0000 T
b00 U
b0 `
b0 a
1m
1r
1w
1|
b0000 ""
1$"
b0000 '"
1)"
b00 ,"
1."
13"
b0 5"
18"
b0 :"
0="
0>"
1C"
b0000000000 F"
#10000000
0!
01
0m
0r
0w
0|
0$"
0)"
0."
03"
08"
0C"
#15000000
1!
11
b0011 K
1M
b0000 V
b0000 W
b00 X
b0011 k
1m
1n
1r
1w
1|
1$"
b0000 &"
1)"
b0000 +"
1."
b00 0"
13"
18"
b0000 ?"
1C"
b0000 G"
b0011 Q"
1R"
b00 U"
#20000000
0!
b0001 #
01
b0001 3
1A
b00000000 G
b00000000 H
b0000 O
b0000 P
1l
0m
b0000 o
1q
0r
b0000 t
1v
0w
b00000000 y
1{
0|
b00000000 !"
1#"
0$"
1("
0)"
1-"
0."
12"
03"
17"
08"
b0000 ;"
b0000 <"
0C"
1D"
b00000000 K"
b00000000 N"
#25000000
1!
11
1m
1r
1w
1|
1$"
1)"
1."
13"
18"
1C"
#30000000
0!
01
0m
0r
0w
0|
0$"
0)"
0."
03"
08"
0C"
#35000000
1!
11
1m
1r
1w
1|
1$"
1)"
1."
13"
18"
1C"
#40000000
0!
01
0m
0r
0w
0|
0$"
0)"
0."
03"
08"
0C"
#45000000
1!
11
1m
1r
1w
1|
1$"
1)"
1."
13"
18"
1C"
#50000000
0!
01
0m
0r
0w
0|
0$"
0)"
0."
03"
08"
0C"
#55000000
1!
11
1m
1r
1w
1|
1$"
1)"
1."
13"
18"
1C"
#60000000
0!
01
0m
0r
0w
0|
0$"
0)"
0."
03"
08"
0C"
#65000000
1!
11
1m
1r
1w
1|
1$"
1)"
1."
13"
18"
1C"
#70000000
0!
01
0m
0r
0w
0|
0$"
0)"
0."
03"
08"
0C"
#75000000
1!
11
1m
1r
1w
1|
1$"
1)"
1."
13"
18"
1C"
#80000000
0!
01
0m
0r
0w
0|
0$"
0)"
0."
03"
08"
0C"
#85000000
1!
11
1m
1r
1w
1|
1$"
1)"
1."
13"
18"
1C"
#90000000
0!
01
0m
0r
0w
0|
0$"
0)"
0."
03"
08"
0C"
#95000000
1!
11
1m
1r
1w
1|
1$"
1)"
1."
13"
18"
1C"
#100000000
0!
01
0m
0r
0w
0|
0$"
0)"
0."
03"
08"
0C"
#105000000
1!
11
1m
1r
1w
1|
1$"
1)"
1."
13"
18"
1C"
#110000000
0!
01
0m
0r
0w
0|
0$"
0)"
0."
03"
08"
0C"
#115000000
1!
11
1m
1r
1w
1|
1$"
1)"
1."
13"
18"
1C"
#120000000
0!
01
0m
0r
0w
0|
0$"
0)"
0."
03"
08"
0C"
#125000000
1!
11
1m
1r
1w
1|
1$"
1)"
1."
13"
18"
1C"
#130000000
0!
01
0m
0r
0w
0|
0$"
0)"
0."
03"
08"
0C"
#135000000
1!
11
1m
1r
1w
1|
1$"
1)"
1."
13"
18"
1C"
#140000000
0!
01
0m
0r
0w
0|
0$"
0)"
0."
03"
08"
0C"
#145000000
1!
11
1m
1r
1w
1|
1$"
1)"
1."
13"
18"
1C"
#150000000
0!
01
0m
0r
0w
0|
0$"
0)"
0."
03"
08"
0C"
#155000000
1!
11
1m
1r
1w
1|
1$"
1)"
1."
13"
18"
1C"
#160000000
0!
01
0m
0r
0w
0|
0$"
0)"
0."
03"
08"
0C"
#165000000
1!
11
1m
1r
1w
1|
1$"
1)"
1."
13"
18"
1C"
#170000000
0!
01
0m
0r
0w
0|
0$"
0)"
0."
03"
08"
0C"
#175000000
1!
11
1m
1r
1w
1|
1$"
1)"
1."
13"
18"
1C"
#180000000
0!
01
0m
0r
0w
0|
0$"
0)"
0."
03"
08"
0C"
#185000000
1!
11
1m
1r
1w
1|
1$"
1)"
1."
13"
18"
1C"
#190000000
0!
01
0m
0r
0w
0|
0$"
0)"
0."
03"
08"
0C"
#195000000
1!
11
1m
1r
1w
1|
1$"
1)"
1."
13"
18"
1C"
#200000000
0!
01
0m
0r
0w
0|
0$"
0)"
0."
03"
08"
0C"
#205000000
1!
11
1m
1r
1w
1|
1$"
1)"
1."
13"
18"
1C"
#210000000
0!
01
0m
0r
0w
0|
0$"
0)"
0."
03"
08"
0C"
#215000000
1!
11
1m
1r
1w
1|
1$"
1)"
1."
13"
18"
1C"
#220000000
0!
01
0m
0r
0w
0|
0$"
0)"
0."
03"
08"
0C"
#225000000
1!
11
1m
1r
1w
1|
1$"
1)"
1."
13"
18"
1C"
#230000000
0!
01
0m
0r
0w
0|
0$"
0)"
0."
03"
08"
0C"
#235000000
1!
11
1m
1r
1w
1|
1$"
1)"
1."
13"
18"
1C"
#240000000
0!
01
0m
0r
0w
0|
0$"
0)"
0."
03"
08"
0C"
#245000000
1!
11
1m
1r
1w
1|
1$"
1)"
1."
13"
18"
1C"
#250000000
0!
01
0m
0r
0w
0|
0$"
0)"
0."
03"
08"
0C"
#255000000
1!
11
1m
1r
1w
1|
1$"
1)"
1."
13"
18"
1C"
#260000000
0!
01
0m
0r
0w
0|
0$"
0)"
0."
03"
08"
0C"
#265000000
1!
11
1m
1r
1w
1|
1$"
1)"
1."
13"
18"
1C"
#270000000
0!
01
0m
0r
0w
0|
0$"
0)"
0."
03"
08"
0C"
#275000000
1!
11
1m
1r
1w
1|
1$"
1)"
1."
13"
18"
1C"
#280000000
0!
01
0m
0r
0w
0|
0$"
0)"
0."
03"
08"
0C"
#285000000
1!
11
1m
1r
1w
1|
1$"
1)"
1."
13"
18"
1C"
#290000000
0!
01
0m
0r
0w
0|
0$"
0)"
0."
03"
08"
0C"
#295000000
1!
11
1m
1r
1w
1|
1$"
1)"
1."
13"
18"
1C"
#300000000
0!
01
0m
0r
0w
0|
0$"
0)"
0."
03"
08"
0C"
#305000000
1!
11
1m
1r
1w
1|
1$"
1)"
1."
13"
18"
1C"
#310000000
0!
01
0m
0r
0w
0|
0$"
0)"
0."
03"
08"
0C"
#315000000
1!
11
1m
1r
1w
1|
1$"
1)"
1."
13"
18"
1C"
#320000000
0!
01
0m
0r
0w
0|
0$"
0)"
0."
03"
08"
0C"
#325000000
1!
11
1m
1r
1w
1|
1$"
1)"
1."
13"
18"
1C"
#330000000
0!
01
0m
0r
0w
0|
0$"
0)"
0."
03"
08"
0C"
#335000000
1!
11
1m
1r
1w
1|
1$"
1)"
1."
13"
18"
1C"
#340000000
0!
01
0m
0r
0w
0|
0$"
0)"
0."
03"
08"
0C"
#345000000
1!
11
1m
1r
1w
1|
1$"
1)"
1."
13"
18"
1C"
#350000000
0!
01
0m
0r
0w
0|
0$"
0)"
0."
03"
08"
0C"
#355000000
1!
11
1m
1r
1w
1|
1$"
1)"
1."
13"
18"
1C"
#360000000
0!
01
0m
0r
0w
0|
0$"
0)"
0."
03"
08"
0C"
#365000000
1!
11
1m
1r
1w
1|
1$"
1)"
1."
13"
18"
1C"
#370000000
0!
01
0m
0r
0w
0|
0$"
0)"
0."
03"
08"
0C"
#375000000
1!
11
1m
1r
1w
1|
1$"
1)"
1."
13"
18"
1C"
#380000000
0!
01
0m
0r
0w
0|
0$"
0)"
0."
03"
08"
0C"
#385000000
1!
11
1m
1r
1w
1|
1$"
1)"
1."
13"
18"
1C"
#390000000
0!
01
0m
0r
0w
0|
0$"
0)"
0."
03"
08"
0C"
#395000000
1!
11
1m
1r
1w
1|
1$"
1)"
1."
13"
18"
1C"
#400000000
0!
01
0m
0r
0w
0|
0$"
0)"
0."
03"
08"
0C"
#405000000
1!
11
1m
1r
1w
1|
1$"
1)"
1."
13"
18"
1C"
#410000000
0!
01
0m
0r
0w
0|
0$"
0)"
0."
03"
08"
0C"
#415000000
1!
11
1m
1r
1w
1|
1$"
1)"
1."
13"
18"
1C"
#420000000
0!
01
0m
0r
0w
0|
0$"
0)"
0."
03"
08"
0C"
#425000000
1!
11
1m
1r
1w
1|
1$"
1)"
1."
13"
18"
1C"
#430000000
0!
01
0m
0r
0w
0|
0$"
0)"
0."
03"
08"
0C"
#435000000
1!
11
1m
1r
1w
1|
1$"
1)"
1."
13"
18"
1C"
#440000000
0!
01
0m
0r
0w
0|
0$"
0)"
0."
03"
08"
0C"
#445000000
1!
11
1m
1r
1w
1|
1$"
1)"
1."
13"
18"
1C"
#450000000
0!
01
0m
0r
0w
0|
0$"
0)"
0."
03"
08"
0C"
#455000000
1!
11
1m
1r
1w
1|
1$"
1)"
1."
13"
18"
1C"
#460000000
0!
01
0m
0r
0w
0|
0$"
0)"
0."
03"
08"
0C"
#465000000
1!
11
1m
1r
1w
1|
1$"
1)"
1."
13"
18"
1C"
#470000000
0!
01
0m
0r
0w
0|
0$"
0)"
0."
03"
08"
0C"
#475000000
1!
11
1m
1r
1w
1|
1$"
1)"
1."
13"
18"
1C"
#480000000
0!
01
0m
0r
0w
0|
0$"
0)"
0."
03"
08"
0C"
#485000000
1!
11
1m
1r
1w
1|
1$"
1)"
1."
13"
18"
1C"
#490000000
0!
01
0m
0r
0w
0|
0$"
0)"
0."
03"
08"
0C"
#495000000
1!
11
1m
1r
1w
1|
1$"
1)"
1."
13"
18"
1C"
#500000000
0!
01
0m
0r
0w
0|
0$"
0)"
0."
03"
08"
0C"
#505000000
1!
11
1m
1r
1w
1|
1$"
1)"
1."
13"
18"
1C"
#510000000
0!
01
0m
0r
0w
0|
0$"
0)"
0."
03"
08"
0C"
#515000000
1!
11
1m
1r
1w
1|
1$"
1)"
1."
13"
18"
1C"
#520000000
0!
b0000 #
01
b0000 3
0A
0l
0m
0q
0r
0v
0w
0{
0|
0#"
0$"
0("
0)"
0-"
0."
02"
03"
07"
08"
0C"
0D"
#525000000
1!
11
b0011 O
1m
b0011 o
1r
1w
1|
1$"
1)"
1."
13"
18"
b0011 ;"
1C"
#530000000
0!
01
0m
0r
0w
0|
0$"
0)"
0."
03"
08"
0C"
#535000000
1!
11
1m
1r
1w
1|
1$"
1)"
1."
13"
18"
1C"
#540000000
0!
01
0m
0r
0w
0|
0$"
0)"
0."
03"
08"
0C"
#545000000
1!
11
1m
1r
1w
1|
1$"
1)"
1."
13"
18"
1C"
#550000000
0!
01
0m
0r
0w
0|
0$"
0)"
0."
03"
08"
0C"
#555000000
1!
11
1m
1r
1w
1|
1$"
1)"
1."
13"
18"
1C"
#560000000
0!
01
0m
0r
0w
0|
0$"
0)"
0."
03"
08"
0C"
#565000000
1!
11
1m
1r
1w
1|
1$"
1)"
1."
13"
18"
1C"
#570000000
0!
01
0m
0r
0w
0|
0$"
0)"
0."
03"
08"
0C"
#575000000
1!
11
1m
1r
1w
1|
1$"
1)"
1."
13"
18"
1C"
#580000000
0!
01
0m
0r
0w
0|
0$"
0)"
0."
03"
08"
0C"
#585000000
1!
11
1m
1r
1w
1|
1$"
1)"
1."
13"
18"
1C"
#590000000
0!
01
0m
0r
0w
0|
0$"
0)"
0."
03"
08"
0C"
#595000000
1!
11
1m
1r
1w
1|
1$"
1)"
1."
13"
18"
1C"
#600000000
0!
01
0m
0r
0w
0|
0$"
0)"
0."
03"
08"
0C"
#605000000
1!
11
1m
1r
1w
1|
1$"
1)"
1."
13"
18"
1C"
#610000000
0!
01
0m
0r
0w
0|
0$"
0)"
0."
03"
08"
0C"
#615000000
1!
11
1m
1r
1w
1|
1$"
1)"
1."
13"
18"
1C"
#620000000
0!
01
0m
0r
0w
0|
0$"
0)"
0."
03"
08"
0C"
#625000000
1!
11
1m
1r
1w
1|
1$"
1)"
1."
13"
18"
1C"
#630000000
0!
01
0m
0r
0w
0|
0$"
0)"
0."
03"
08"
0C"
#635000000
1!
11
1m
1r
1w
1|
1$"
1)"
1."
13"
18"
1C"
#640000000
0!
01
0m
0r
0w
0|
0$"
0)"
0."
03"
08"
0C"
#645000000
1!
11
1m
1r
1w
1|
1$"
1)"
1."
13"
18"
1C"
#650000000
0!
01
0m
0r
0w
0|
0$"
0)"
0."
03"
08"
0C"
#655000000
1!
11
1m
1r
1w
1|
1$"
1)"
1."
13"
18"
1C"
#660000000
0!
01
0m
0r
0w
0|
0$"
0)"
0."
03"
08"
0C"
#665000000
1!
11
1m
1r
1w
1|
1$"
1)"
1."
13"
18"
1C"
#670000000
0!
01
0m
0r
0w
0|
0$"
0)"
0."
03"
08"
0C"
#675000000
1!
11
1m
1r
1w
1|
1$"
1)"
1."
13"
18"
1C"
#680000000
0!
01
0m
0r
0w
0|
0$"
0)"
0."
03"
08"
0C"
#685000000
1!
11
1m
1r
1w
1|
1$"
1)"
1."
13"
18"
1C"
#690000000
0!
01
0m
0r
0w
0|
0$"
0)"
0."
03"
08"
0C"
#695000000
1!
11
1m
1r
1w
1|
1$"
1)"
1."
13"
18"
1C"
#700000000
0!
01
0m
0r
0w
0|
0$"
0)"
0."
03"
08"
0C"
#705000000
1!
11
1m
1r
1w
1|
1$"
1)"
1."
13"
18"
1C"
#710000000
0!
01
0m
0r
0w
0|
0$"
0)"
0."
03"
08"
0C"
#715000000
1!
11
1m
1r
1w
1|
1$"
1)"
1."
13"
18"
1C"
#720000000
0!
01
0m
0r
0w
0|
0$"
0)"
0."
03"
08"
0C"
#725000000
1!
11
1m
1r
1w
1|
1$"
1)"
1."
13"
18"
1C"
#730000000
0!
01
0m
0r
0w
0|
0$"
0)"
0."
03"
08"
0C"
#735000000
1!
11
1m
1r
1w
1|
1$"
1)"
1."
13"
18"
1C"
#740000000
0!
01
0m
0r
0w
0|
0$"
0)"
0."
03"
08"
0C"
#745000000
1!
11
1m
1r
1w
1|
1$"
1)"
1."
13"
18"
1C"
#750000000
0!
01
0m
0r
0w
0|
0$"
0)"
0."
03"
08"
0C"
#755000000
1!
11
1m
1r
1w
1|
1$"
1)"
1."
13"
18"
1C"
#760000000
0!
01
0m
0r
0w
0|
0$"
0)"
0."
03"
08"
0C"
#765000000
1!
11
1m
1r
1w
1|
1$"
1)"
1."
13"
18"
1C"
#770000000
0!
01
0m
0r
0w
0|
0$"
0)"
0."
03"
08"
0C"
#775000000
1!
11
1m
1r
1w
1|
1$"
1)"
1."
13"
18"
1C"
#780000000
0!
01
0m
0r
0w
0|
0$"
0)"
0."
03"
08"
0C"
#785000000
1!
11
1m
1r
1w
1|
1$"
1)"
1."
13"
18"
1C"
#790000000
0!
01
0m
0r
0w
0|
0$"
0)"
0."
03"
08"
0C"
#795000000
1!
11
1m
1r
1w
1|
1$"
1)"
1."
13"
18"
1C"
#800000000
0!
01
0m
0r
0w
0|
0$"
0)"
0."
03"
08"
0C"
#805000000
1!
11
1m
1r
1w
1|
1$"
1)"
1."
13"
18"
1C"
#810000000
0!
01
0m
0r
0w
0|
0$"
0)"
0."
03"
08"
0C"
#815000000
1!
11
1m
1r
1w
1|
1$"
1)"
1."
13"
18"
1C"
#820000000
0!
01
0m
0r
0w
0|
0$"
0)"
0."
03"
08"
0C"
#825000000
1!
11
1m
1r
1w
1|
1$"
1)"
1."
13"
18"
1C"
#830000000
0!
01
0m
0r
0w
0|
0$"
0)"
0."
03"
08"
0C"
#835000000
1!
11
1m
1r
1w
1|
1$"
1)"
1."
13"
18"
1C"
#840000000
0!
01
0m
0r
0w
0|
0$"
0)"
0."
03"
08"
0C"
#845000000
1!
11
1m
1r
1w
1|
1$"
1)"
1."
13"
18"
1C"
#850000000
0!
01
0m
0r
0w
0|
0$"
0)"
0."
03"
08"
0C"
#855000000
1!
11
1m
1r
1w
1|
1$"
1)"
1."
13"
18"
1C"
#860000000
0!
01
0m
0r
0w
0|
0$"
0)"
0."
03"
08"
0C"
#865000000
1!
11
1m
1r
1w
1|
1$"
1)"
1."
13"
18"
1C"
#870000000
0!
01
0m
0r
0w
0|
0$"
0)"
0."
03"
08"
0C"
#875000000
1!
11
1m
1r
1w
1|
1$"
1)"
1."
13"
18"
1C"
#880000000
0!
01
0m
0r
0w
0|
0$"
0)"
0."
03"
08"
0C"
#885000000
1!
11
1m
1r
1w
1|
1$"
1)"
1."
13"
18"
1C"
#890000000
0!
01
0m
0r
0w
0|
0$"
0)"
0."
03"
08"
0C"
#895000000
1!
11
1m
1r
1w
1|
1$"
1)"
1."
13"
18"
1C"
#900000000
0!
01
0m
0r
0w
0|
0$"
0)"
0."
03"
08"
0C"
#905000000
1!
11
1m
1r
1w
1|
1$"
1)"
1."
13"
18"
1C"
#910000000
0!
01
0m
0r
0w
0|
0$"
0)"
0."
03"
08"
0C"
#915000000
1!
11
1m
1r
1w
1|
1$"
1)"
1."
13"
18"
1C"
#920000000
0!
b0010 #
01
b0010 3
0m
0r
0w
0|
0$"
0)"
0."
03"
08"
0C"
#925000000
1!
11
b0010 h
1j
1m
1r
1w
1|
1$"
1)"
1."
13"
18"
1C"
#930000000
0!
01
0m
0r
0w
0|
0$"
0)"
0."
03"
08"
0C"
#935000000
1!
11
b0000001 e
1m
1r
1w
1|
1$"
1)"
1."
13"
18"
1C"
#940000000
0!
01
0m
0r
0w
0|
0$"
0)"
0."
03"
08"
0C"
#945000000
1!
11
b0000001 B
b0000010 e
1m
1r
1w
1|
1$"
1)"
1."
13"
18"
1C"
b0000001 E"
#950000000
0!
01
0m
0r
0w
0|
0$"
0)"
0."
03"
08"
0C"
#955000000
1!
11
b0000010 B
b0000011100 C
b0111 T
b0000011 e
1m
1r
1w
1|
1$"
b0111 '"
1)"
1."
13"
18"
1C"
b0000010 E"
b0000011100 F"
#960000000
0!
01
0m
0r
0w
0|
0$"
0)"
0."
03"
08"
0C"
#965000000
1!
11
b0000011 B
b1111000011 C
b0000 K
b0011 L
0M
1N
b1111 S
b0000 T
b11 U
b0111 W
b0000100 e
b0000 k
1m
0n
b0011 p
1r
1s
1w
1|
b1111 ""
1$"
b0000 '"
1)"
b0111 +"
b11 ,"
1."
13"
18"
1C"
b0000011 E"
b1111000011 F"
b0111 G"
b0000 Q"
0R"
b0011 S"
1T"
#970000000
0!
01
0m
0r
0w
0|
0$"
0)"
0."
03"
08"
0C"
#975000000
1!
11
b0000100 B
b0000000000 C
b00001001 D
b0011 K
b0000 L
1M
0N
b0011 P
b0000 S
b00 U
b1111 V
b0000 W
b11 X
b00001001 [
1d
b0000101 e
b0011 k
1m
1n
b0000 p
1r
0s
b0011 t
1w
1|
b0000 ""
1$"
b1111 &"
1)"
b0000 +"
b00 ,"
1."
b11 0"
13"
18"
b0011 <"
b1111 ?"
b00001001 B"
1C"
b0000100 E"
b0000000000 F"
b0000 G"
b00001001 J"
b0011 Q"
1R"
b0000 S"
0T"
b11 U"
b00001001 V"
1W"
#980000000
0!
01
0m
0r
0w
0|
0$"
0)"
0."
03"
08"
0C"
#985000000
1!
1&
1'
10
11
16
17
1@
b0000011100 C
b00000000 D
b0111 T
b0000 V
b00 X
b00000000 [
0d
b00001001 f
1g
1i
0j
1m
1r
1w
1|
1$"
b0000 &"
b0111 '"
1)"
1."
b00 0"
13"
18"
b0000 ?"
b00000000 B"
1C"
b0000011100 F"
b00000000 J"
b00 U"
b00000000 V"
0W"
#990000000
0!
01
0m
0r
0w
0|
0$"
0)"
0."
03"
08"
0C"
#995000000
1!
0&
11
06
b0000101 B
b0000 K
b0011 L
0M
1N
b0111 W
b0000110 e
0i
b0000 k
1m
0n
b0011 p
1r
1s
1w
1|
1$"
1)"
b0111 +"
1."
13"
18"
1C"
b0000101 E"
b0111 G"
b0000 Q"
0R"
b0011 S"
1T"
#1000000000
0!
01
0m
0r
0w
0|
0$"
0)"
0."
03"
08"
0C"
#1005000000
1!
11
b0000110 B
b1101111000 C
b1101 S
b1110 T
b0000111 e
1m
1r
1w
1|
b1101 ""
1$"
b1110 '"
1)"
1."
13"
18"
1C"
b0000110 E"
b1101111000 F"
#1010000000
0!
01
0m
0r
0w
0|
0$"
0)"
0."
03"
08"
0C"
#1015000000
1!
11
b0000111 B
b0000100000 C
b00000110 E
1I
b0000 L
0N
b0000 S
b1000 T
b1101 V
b1110 W
b00000110 [
b0001000 e
1m
b0000 p
1r
0s
b00000110 u
1w
1x
1|
b0000 ""
1$"
b1101 &"
b1000 '"
1)"
b1110 +"
1."
13"
18"
b1101 ?"
b00000110 B"
1C"
b0000111 E"
b0000100000 F"
b1110 G"
b00000110 J"
1L"
b00000110 M"
b0000 S"
0T"
#1020000000
0!
01
0m
0r
0w
0|
0$"
0)"
0."
03"
08"
0C"
#1025000000
1!
11
b0001000 B
b0111111100 C
b00000000 E
b00000110 G
0I
b0110 L
1N
b0111 S
b1111 T
b0000 V
b1000 W
b00000000 [
b0001001 e
1m
b0110 p
1r
1s
b00000000 u
1w
0x
b00000110 y
1|
b0111 ""
1$"
b0000 &"
b1111 '"
1)"
b1000 +"
1."
13"
18"
b0000 ?"
b00000000 B"
1C"
b0001000 E"
b0111111100 F"
b1000 G"
b00000000 J"
b00000110 K"
0L"
b00000000 M"
b0110 S"
1T"
#1030000000
0!
01
0m
0r
0w
0|
0$"
0)"
0."
03"
08"
0C"
#1035000000
1!
11
b0001001 B
b0000001100 C
b00000101 F
1J
b0000 L
0N
b0110 P
b0000 S
b0011 T
b0111 V
b1111 W
b00000101 [
b0001010 e
1m
b0000 p
1r
0s
b0110 t
1w
b00000101 z
1|
1}
b0000 ""
1$"
b0111 &"
b0011 '"
1)"
b1111 +"
1."
13"
18"
b0110 <"
b0111 ?"
b00000101 B"
1C"
b0001001 E"
b0000001100 F"
b1111 G"
b00000101 J"
1O"
b00000101 P"
b0000 S"
0T"
#1040000000
0!
01
0m
0r
0w
0|
0$"
0)"
0."
03"
08"
0C"
